%!PS-Adobe-3.0 EPSF-3.0
%%Creator: (Apache XML Graphics Commons: EPS Generator for Java2D)
%%CreationDate: 2021-04-19T17:41:55
%%Pages: (atend)
%%BoundingBox: 0 0 610 460
%%LanguageLevel: 3
%%EndComments
%%BeginProlog
%%BeginResource: procset (Apache XML Graphics Std ProcSet) 1.2 0
%%Version: 1.2 0
%%Copyright: (Copyright 2001-2003,2010 The Apache Software Foundation. License terms: http://www.apache.org/licenses/LICENSE-2.0)
%%Title: (Basic set of procedures used by the XML Graphics project \(Batik and FOP\))
/bd{bind def}bind def
/ld{load def}bd
/GR/grestore ld
/GS/gsave ld
/RM/rmoveto ld
/C/curveto ld
/t/show ld
/L/lineto ld
/ML/setmiterlimit ld
/CT/concat ld
/f/fill ld
/N/newpath ld
/S/stroke ld
/CC/setcmykcolor ld
/A/ashow ld
/cp/closepath ld
/RC/setrgbcolor ld
/LJ/setlinejoin ld
/GC/setgray ld
/LW/setlinewidth ld
/M/moveto ld
/re {4 2 roll M
1 index 0 rlineto
0 exch rlineto
neg 0 rlineto
cp } bd
/_ctm matrix def
/_tm matrix def
/BT { _ctm currentmatrix pop matrix _tm copy pop 0 0 moveto } bd
/ET { _ctm setmatrix } bd
/iTm { _ctm setmatrix _tm concat } bd
/Tm { _tm astore pop iTm 0 0 moveto } bd
/ux 0.0 def
/uy 0.0 def
/F {
  /Tp exch def
  /Tf exch def
  Tf findfont Tp scalefont setfont
  /cf Tf def  /cs Tp def
} bd
/ULS {currentpoint /uy exch def /ux exch def} bd
/ULE {
  /Tcx currentpoint pop def
  gsave
  newpath
  cf findfont cs scalefont dup
  /FontMatrix get 0 get /Ts exch def /FontInfo get dup
  /UnderlinePosition get Ts mul /To exch def
  /UnderlineThickness get Ts mul /Tt exch def
  ux uy To add moveto  Tcx uy To add lineto
  Tt setlinewidth stroke
  grestore
} bd
/OLE {
  /Tcx currentpoint pop def
  gsave
  newpath
  cf findfont cs scalefont dup
  /FontMatrix get 0 get /Ts exch def /FontInfo get dup
  /UnderlinePosition get Ts mul /To exch def
  /UnderlineThickness get Ts mul /Tt exch def
  ux uy To add cs add moveto Tcx uy To add cs add lineto
  Tt setlinewidth stroke
  grestore
} bd
/SOE {
  /Tcx currentpoint pop def
  gsave
  newpath
  cf findfont cs scalefont dup
  /FontMatrix get 0 get /Ts exch def /FontInfo get dup
  /UnderlinePosition get Ts mul /To exch def
  /UnderlineThickness get Ts mul /Tt exch def
  ux uy To add cs 10 mul 26 idiv add moveto Tcx uy To add cs 10 mul 26 idiv add lineto
  Tt setlinewidth stroke
  grestore
} bd
/QT {
/Y22 exch store
/X22 exch store
/Y21 exch store
/X21 exch store
currentpoint
/Y21 load 2 mul add 3 div exch
/X21 load 2 mul add 3 div exch
/X21 load 2 mul /X22 load add 3 div
/Y21 load 2 mul /Y22 load add 3 div
/X22 load /Y22 load curveto
} bd
/SSPD {
dup length /d exch dict def
{
/v exch def
/k exch def
currentpagedevice k known {
/cpdv currentpagedevice k get def
v cpdv ne {
/upd false def
/nullv v type /nulltype eq def
/nullcpdv cpdv type /nulltype eq def
nullv nullcpdv or
{
/upd true def
} {
/sametype v type cpdv type eq def
sametype {
v type /arraytype eq {
/vlen v length def
/cpdvlen cpdv length def
vlen cpdvlen eq {
0 1 vlen 1 sub {
/i exch def
/obj v i get def
/cpdobj cpdv i get def
obj cpdobj ne {
/upd true def
exit
} if
} for
} {
/upd true def
} ifelse
} {
v type /dicttype eq {
v {
/dv exch def
/dk exch def
/cpddv cpdv dk get def
dv cpddv ne {
/upd true def
exit
} if
} forall
} {
/upd true def
} ifelse
} ifelse
} if
} ifelse
upd true eq {
d k v put
} if
} if
} if
} forall
d length 0 gt {
d setpagedevice
} if
} bd
/RE { % /NewFontName [NewEncodingArray] /FontName RE -
  findfont dup length dict begin
  {
    1 index /FID ne
    {def} {pop pop} ifelse
  } forall
  /Encoding exch def
  /FontName 1 index def
  currentdict definefont pop
  end
} bind def
%%EndResource
%%BeginResource: procset (Apache XML Graphics EPS ProcSet) 1.0 0
%%Version: 1.0 0
%%Copyright: (Copyright 2002-2003 The Apache Software Foundation. License terms: http://www.apache.org/licenses/LICENSE-2.0)
%%Title: (EPS procedures used by the Apache XML Graphics project \(Batik and FOP\))
/BeginEPSF { %def
/b4_Inc_state save def         % Save state for cleanup
/dict_count countdictstack def % Count objects on dict stack
/op_count count 1 sub def      % Count objects on operand stack
userdict begin                 % Push userdict on dict stack
/showpage { } def              % Redefine showpage, { } = null proc
0 setgray 0 setlinecap         % Prepare graphics state
1 setlinewidth 0 setlinejoin
10 setmiterlimit [ ] 0 setdash newpath
/languagelevel where           % If level not equal to 1 then
{pop languagelevel             % set strokeadjust and
1 ne                           % overprint to their defaults.
{false setstrokeadjust false setoverprint
} if
} if
} bd
/EndEPSF { %def
count op_count sub {pop} repeat            % Clean up stacks
countdictstack dict_count sub {end} repeat
b4_Inc_state restore
} bd
%%EndResource
%%EndProlog
%%Page: 1 1
%%PageBoundingBox: 0 0 610 460
%%BeginPageSetup
%%PageOrientation: Portrait
/ReEncode { /MyEncoding exch def exch findfont dup length dict begin {def} forall /Encoding MyEncoding def currentdict end definefont } def
/Helvetica /HelveticaLatin1 ISOLatin1Encoding ReEncode
/Times /TimesLatin1 ISOLatin1Encoding ReEncode
/DP {/Points exch def Points 0 get Points 1 get M 2 2 Points length 1 sub {/i exch def Points i get Points i 1 add get L}for} def
[1 0 0 -1 0 460] CT
%%EndPageSetup
GS
0.8 GC
N
0 0 610 460 re
f
GR
0 GC
/HelveticaLatin1 10 F
GS
[1 0 0 1 98.75 229.59524] CT
-0.656 9.282 M 1 -1 scale
(0.2) t
GR
/HelveticaLatin1 10 F
GS
[1 0 0 1 220.25 229.59524] CT
-0.656 9.282 M 1 -1 scale
(0.4) t
GR
/HelveticaLatin1 10 F
GS
[1 0 0 1 342.25 229.59524] CT
-0.656 9.282 M 1 -1 scale
(0.6) t
GR
/HelveticaLatin1 10 F
GS
[1 0 0 1 464.25 229.59524] CT
-0.656 9.282 M 1 -1 scale
(0.8) t
GR
/HelveticaLatin1 10 F
GS
[1 0 0 1 159.75 229.59524] CT
-0.656 9.282 M 1 -1 scale
(0.3) t
GR
/HelveticaLatin1 10 F
GS
[1 0 0 1 281.75 229.59524] CT
-0.656 9.282 M 1 -1 scale
(0.5) t
GR
/HelveticaLatin1 10 F
GS
[1 0 0 1 403.75 229.59524] CT
-0.656 9.282 M 1 -1 scale
(0.7) t
GR
/HelveticaLatin1 10 F
GS
[1 0 0 1 525.75 229.59524] CT
-0.656 9.282 M 1 -1 scale
(0.9) t
GR
GS
10.0 ML
N
[106.75 220.595 106.75 226.595] DP
S
GR
GS
10.0 ML
N
[167.75 220.595 167.75 226.595] DP
S
GR
GS
10.0 ML
N
[228.75 220.595 228.75 226.595] DP
S
GR
GS
10.0 ML
N
[289.75 220.595 289.75 226.595] DP
S
GR
GS
10.0 ML
N
[350.75 220.595 350.75 226.595] DP
S
GR
GS
10.0 ML
N
[411.75 220.595 411.75 226.595] DP
S
GR
GS
10.0 ML
N
[472.75 220.595 472.75 226.595] DP
S
GR
GS
10.0 ML
N
[533.75 220.595 533.75 226.595] DP
S
GR
GS
10.0 ML
N
[76.25 220.595 76.25 223.595] DP
S
GR
GS
10.0 ML
N
[106.75 220.595 106.75 223.595] DP
S
GR
GS
10.0 ML
N
[137.25 220.595 137.25 223.595] DP
S
GR
GS
10.0 ML
N
[167.75 220.595 167.75 223.595] DP
S
GR
GS
10.0 ML
N
[198.25 220.595 198.25 223.595] DP
S
GR
GS
10.0 ML
N
[228.75 220.595 228.75 223.595] DP
S
GR
GS
10.0 ML
N
[259.25 220.595 259.25 223.595] DP
S
GR
GS
10.0 ML
N
[289.75 220.595 289.75 223.595] DP
S
GR
GS
10.0 ML
N
[320.25 220.595 320.25 223.595] DP
S
GR
GS
10.0 ML
N
[350.75 220.595 350.75 223.595] DP
S
GR
GS
10.0 ML
N
[381.25 220.595 381.25 223.595] DP
S
GR
GS
10.0 ML
N
[411.75 220.595 411.75 223.595] DP
S
GR
GS
10.0 ML
N
[442.25 220.595 442.25 223.595] DP
S
GR
GS
10.0 ML
N
[472.75 220.595 472.75 223.595] DP
S
GR
GS
10.0 ML
N
[503.25 220.595 503.25 223.595] DP
S
GR
GS
10.0 ML
N
[533.75 220.595 533.75 223.595] DP
S
GR
GS
10.0 ML
N
[533.75 220.595 76.25 220.595] DP
S
GR
/HelveticaLatin1 10 F
GS
[1 0 0 1 288 214.09524] CT
-0.656 9.282 M 1 -1 scale
(0) t
GR
/HelveticaLatin1 10 F
GS
[1 0 0 1 278 377.19048] CT
-0.484 9.282 M 1 -1 scale
(-10) t
GR
/HelveticaLatin1 10 F
GS
[1 0 0 1 283 51] CT
-1.094 9.282 M 1 -1 scale
(10) t
GR
/HelveticaLatin1 10 F
GS
[1 0 0 1 284 344.57143] CT
-0.484 9.282 M 1 -1 scale
(-8) t
GR
/HelveticaLatin1 10 F
GS
[1 0 0 1 284 311.95238] CT
-0.484 9.282 M 1 -1 scale
(-6) t
GR
/HelveticaLatin1 10 F
GS
[1 0 0 1 284 279.33333] CT
-0.484 9.282 M 1 -1 scale
(-4) t
GR
/HelveticaLatin1 10 F
GS
[1 0 0 1 285 246.71429] CT
-0.484 9.282 M 1 -1 scale
(-2) t
GR
/HelveticaLatin1 10 F
GS
[1 0 0 1 289 181.47619] CT
-0.734 9.282 M 1 -1 scale
(2) t
GR
/HelveticaLatin1 10 F
GS
[1 0 0 1 288 148.85714] CT
-0.484 9.282 M 1 -1 scale
(4) t
GR
/HelveticaLatin1 10 F
GS
[1 0 0 1 288 116.2381] CT
-0.703 9.282 M 1 -1 scale
(6) t
GR
/HelveticaLatin1 10 F
GS
[1 0 0 1 289 83.61905] CT
-0.672 9.282 M 1 -1 scale
(8) t
GR
GS
10.0 ML
N
[305 383.69 299 383.69] DP
S
GR
GS
10.0 ML
N
[305 351.071 299 351.071] DP
S
GR
GS
10.0 ML
N
[305 318.452 299 318.452] DP
S
GR
GS
10.0 ML
N
[305 285.833 299 285.833] DP
S
GR
GS
10.0 ML
N
[305 253.214 299 253.214] DP
S
GR
GS
10.0 ML
N
[305 220.595 299 220.595] DP
S
GR
GS
10.0 ML
N
[305 187.976 299 187.976] DP
S
GR
GS
10.0 ML
N
[305 155.357 299 155.357] DP
S
GR
GS
10.0 ML
N
[305 122.738 299 122.738] DP
S
GR
GS
10.0 ML
N
[305 90.119 299 90.119] DP
S
GR
GS
10.0 ML
N
[305 57.5 299 57.5] DP
S
GR
GS
10.0 ML
N
[305 383.69 302 383.69] DP
S
GR
GS
10.0 ML
N
[305 367.381 302 367.381] DP
S
GR
GS
10.0 ML
N
[305 351.071 302 351.071] DP
S
GR
GS
10.0 ML
N
[305 334.762 302 334.762] DP
S
GR
GS
10.0 ML
N
[305 318.452 302 318.452] DP
S
GR
GS
10.0 ML
N
[305 302.143 302 302.143] DP
S
GR
GS
10.0 ML
N
[305 285.833 302 285.833] DP
S
GR
GS
10.0 ML
N
[305 269.524 302 269.524] DP
S
GR
GS
10.0 ML
N
[305 253.214 302 253.214] DP
S
GR
GS
10.0 ML
N
[305 236.905 302 236.905] DP
S
GR
GS
10.0 ML
N
[305 220.595 302 220.595] DP
S
GR
GS
10.0 ML
N
[305 204.286 302 204.286] DP
S
GR
GS
10.0 ML
N
[305 187.976 302 187.976] DP
S
GR
GS
10.0 ML
N
[305 171.667 302 171.667] DP
S
GR
GS
10.0 ML
N
[305 155.357 302 155.357] DP
S
GR
GS
10.0 ML
N
[305 139.048 302 139.048] DP
S
GR
GS
10.0 ML
N
[305 122.738 302 122.738] DP
S
GR
GS
10.0 ML
N
[305 106.429 302 106.429] DP
S
GR
GS
10.0 ML
N
[305 90.119 302 90.119] DP
S
GR
GS
10.0 ML
N
[305 73.81 302 73.81] DP
S
GR
GS
10.0 ML
N
[305 57.5 302 57.5] DP
S
GR
GS
10.0 ML
N
[305 57.5 305 383.69] DP
S
GR
GS
N
76.245 57.497 M
533.755 57.497 L
533.755 383.694 L
76.245 383.694 L
76.245 57.497 L
cp
clip
10.0 ML
N
[76.25 245.996 82.35 245.666 88.45 245.334 94.55 245 100.65 244.663 106.75 244.324 112.85 243.982 118.95 243.636 125.05 243.287 131.15 242.934 137.25 242.577 143.35 242.215 149.45 241.85 155.55 241.48 161.65 241.105 167.75 240.726 173.85 240.342 179.95 239.953 186.05 239.56 192.15 239.162 198.25 238.759 204.35 238.351 210.45 237.938 216.55 237.52 222.65 237.097 228.75 236.67 234.85 236.237 240.95 235.8 247.05 235.357 253.15 234.91 259.25 234.458 265.35 234.001 271.45 233.54 277.55 233.074 283.65 232.603 289.75 232.128 295.85 231.648 301.95 231.164 308.05 230.675 314.15 230.182 320.25 229.684 326.35 229.182 332.45 228.677 338.55 228.167 344.65 227.653 350.75 227.135 356.85 226.613 362.95 226.088 369.05 225.559 375.15 225.026 381.25 224.489 387.35 223.95 393.45 223.407 399.55 222.86 405.65 222.311 411.75 221.758 417.85 221.203 423.95 220.645 430.05 220.084 436.15 219.52 442.25 218.954 448.35 218.385 454.45 217.814 460.55 217.24 466.65 216.665 472.75 216.087 478.85 215.508 484.95 214.927 491.05 214.344 497.15 213.759 503.25 213.173 509.35 212.586 515.45 211.997 521.55 211.408 527.65 210.817 533.75 210.225] DP
S
GR
GS
N
76.245 57.497 M
533.755 57.497 L
533.755 383.694 L
76.245 383.694 L
76.245 57.497 L
cp
clip
0 0 1 RC
10.0 ML
N
[76.25 187.578 82.35 187.466 88.45 187.297 94.55 187.079 100.65 186.821 106.75 186.527 112.85 186.203 118.95 185.853 125.05 185.48 131.15 185.087 137.25 184.678 143.35 184.253 149.45 183.816 155.55 183.368 161.65 182.911 167.75 182.445 173.85 181.973 179.95 181.495 186.05 181.013 192.15 180.528 198.25 180.039 204.35 179.549 210.45 179.058 216.55 178.567 222.65 178.075 228.75 177.585 234.85 177.095 240.95 176.608 247.05 176.123 253.15 175.641 259.25 175.162 265.35 174.687 271.45 174.217 277.55 173.75 283.65 173.288 289.75 172.832 295.85 172.381 301.95 171.936 308.05 171.497 314.15 171.064 320.25 170.638 326.35 170.219 332.45 169.806 338.55 169.402 344.65 169.004 350.75 168.615 356.85 168.234 362.95 167.861 369.05 167.496 375.15 167.14 381.25 166.793 387.35 166.455 393.45 166.126 399.55 165.806 405.65 165.496 411.75 165.195 417.85 164.904 423.95 164.623 430.05 164.352 436.15 164.092 442.25 163.841 448.35 163.601 454.45 163.372 460.55 163.153 466.65 162.945 472.75 162.748 478.85 162.562 484.95 162.386 491.05 162.222 497.15 162.07 503.25 161.928 509.35 161.798 515.45 161.679 521.55 161.572 527.65 161.476 533.75 161.392] DP
S
GR
GS
N
76.245 57.497 M
533.755 57.497 L
533.755 383.694 L
76.245 383.694 L
76.245 57.497 L
cp
clip
0 1 0 RC
10.0 ML
N
[76.25 212.52 82.35 206.349 88.45 201.135 94.55 196.698 100.65 192.901 106.75 189.637 112.85 186.82 118.95 184.383 125.05 182.272 131.15 180.442 137.25 178.857 143.35 177.486 149.45 176.304 155.55 175.291 161.65 174.427 167.75 173.697 173.85 173.089 179.95 172.591 186.05 172.193 192.15 171.886 198.25 171.663 204.35 171.517 210.45 171.443 216.55 171.435 222.65 171.488 228.75 171.599 234.85 171.764 240.95 171.98 247.05 172.243 253.15 172.551 259.25 172.902 265.35 173.292 271.45 173.721 277.55 174.186 283.65 174.685 289.75 175.217 295.85 175.78 301.95 176.374 308.05 176.996 314.15 177.645 320.25 178.321 326.35 179.022 332.45 179.748 338.55 180.497 344.65 181.268 350.75 182.061 356.85 182.875 362.95 183.708 369.05 184.562 375.15 185.433 381.25 186.323 387.35 187.23 393.45 188.153 399.55 189.093 405.65 190.048 411.75 191.018 417.85 192.002 423.95 193.001 430.05 194.012 436.15 195.036 442.25 196.073 448.35 197.121 454.45 198.181 460.55 199.251 466.65 200.332 472.75 201.423 478.85 202.523 484.95 203.632 491.05 204.75 497.15 205.876 503.25 207.01 509.35 208.151 515.45 209.299 521.55 210.453 527.65 211.614 533.75 212.78] DP
S
GR
GS
10.0 ML
N
[76.25 383.69 76.25 57.5 76.25 57.5 533.75 57.5 533.75 383.69 533.75 383.69 76.25 383.69] DP
S
GR
GS
10.0 ML
N
[533.75 57.5 76.25 57.5] DP
S
GR
GS
10.0 ML
N
[533.75 57.5 533.75 383.69] DP
S
GR
GS
10.0 ML
N
[533.75 57.5 533.75 57.5] DP
S
GR
GS
0 1 0 RC
10.0 ML
N
[81.969 437.214 104.844 437.214 127.719 437.214] DP
S
GR
GS
0 0 1 RC
10.0 ML
N
[81.969 419.214 104.844 419.214 127.719 419.214] DP
S
GR
GS
10.0 ML
N
[81.969 401.214 104.844 401.214 127.719 401.214] DP
S
GR
GS
[10 0 0 10 136.43751 403.21429] CT
N
0.359 -0.406 M
0.359 -0.406 L
0.313 -0.078 L
0.297 -0.016 0.266 0.063 QT
0.266 0.094 0.25 0.109 QT
0.219 0.188 0.156 0.203 QT
0.156 0.203 0.141 0.203 QT
0.094 0.203 0.063 0.172 QT
0.047 0.156 0.047 0.141 QT
0.047 0.094 0.094 0.078 QT
0.094 0.078 0.109 0.078 QT
0.141 0.078 0.141 0.094 QT
0.141 0.109 0.141 0.109 QT
0.141 0.141 0.109 0.156 QT
0.109 0.156 0.094 0.172 QT
0.109 0.188 0.141 0.188 QT
0.188 0.188 0.203 0.078 QT
0.219 0.063 0.219 0.031 QT
0.219 0 L
0.297 -0.406 L
0.234 -0.406 L
0.203 -0.406 0.203 -0.406 QT
0.203 -0.406 L
0.203 -0.406 L
0.203 -0.422 0.219 -0.438 QT
0.219 -0.438 L
0.234 -0.438 L
0.313 -0.438 L
0.328 -0.563 0.344 -0.594 QT
0.375 -0.688 0.438 -0.703 QT
0.453 -0.703 0.469 -0.703 QT
0.516 -0.703 0.547 -0.672 QT
0.547 -0.672 L
0.547 -0.656 0.547 -0.641 QT
0.547 -0.594 0.516 -0.578 QT
0.516 -0.578 0.5 -0.578 QT
0.469 -0.578 0.469 -0.594 QT
0.453 -0.609 0.453 -0.609 QT
0.453 -0.641 0.484 -0.656 QT
0.5 -0.656 0.516 -0.672 QT
0.5 -0.688 0.469 -0.688 QT
0.438 -0.688 0.422 -0.656 QT
0.406 -0.641 0.391 -0.547 QT
0.375 -0.438 L
0.453 -0.438 L
0.484 -0.438 0.484 -0.422 QT
0.484 -0.406 0.469 -0.406 QT
0.469 -0.406 L
0.453 -0.406 L
0.359 -0.406 L
cp
f
GR
GS
[10 0 0 10 142.96532 403.21429] CT
N
0.328 0.234 M
0.328 0.234 L
0.328 0.25 0.328 0.25 QT
0.313 0.25 0.266 0.203 QT
0.203 0.141 0.172 0.063 QT
0.094 -0.078 0.094 -0.25 QT
0.094 -0.422 0.156 -0.563 QT
0.219 -0.672 0.297 -0.734 QT
0.313 -0.75 0.328 -0.75 QT
0.328 -0.75 0.328 -0.734 QT
0.328 -0.734 0.313 -0.719 QT
0.156 -0.563 0.156 -0.25 QT
0.156 0.063 0.313 0.219 QT
0.328 0.234 0.328 0.234 QT
cp
f
GR
GS
[10 0 0 10 148.15052 403.21429] CT
N
0.328 -0.297 M
0.297 -0.172 L
0.281 -0.094 0.281 -0.078 QT
0.281 -0.031 0.313 -0.016 QT
0.328 -0.016 0.344 -0.016 QT
0.391 -0.016 0.422 -0.063 QT
0.453 -0.094 0.469 -0.141 QT
0.469 -0.156 0.484 -0.156 QT
0.5 -0.156 0.5 -0.141 QT
0.5 -0.125 0.469 -0.078 QT
0.406 0.016 0.344 0.016 QT
0.266 0.016 0.234 -0.047 QT
0.234 -0.063 0.234 -0.063 QT
0.203 -0.016 0.156 0 QT
0.141 0.016 0.125 0.016 QT
0.063 0.016 0.031 -0.031 QT
0.031 -0.031 0.031 -0.063 QT
0.031 -0.094 0.063 -0.109 QT
0.078 -0.109 0.078 -0.109 QT
0.109 -0.109 0.125 -0.094 QT
0.125 -0.078 0.125 -0.078 QT
0.125 -0.047 0.094 -0.031 QT
0.078 -0.031 0.078 -0.031 QT
0.094 -0.016 0.125 -0.016 QT
0.172 -0.016 0.203 -0.078 QT
0.219 -0.094 0.219 -0.109 QT
0.266 -0.313 0.266 -0.359 QT
0.266 -0.422 0.219 -0.422 QT
0.172 -0.422 0.125 -0.359 QT
0.125 -0.359 L
0.125 -0.359 0.125 -0.359 QT
0.109 -0.344 0.094 -0.313 QT
0.094 -0.313 0.094 -0.297 QT
0.078 -0.281 L
0.078 -0.281 0.078 -0.281 QT
0.063 -0.281 0.063 -0.281 QT
0.063 -0.313 0.094 -0.359 QT
0.141 -0.438 0.219 -0.438 QT
0.297 -0.438 0.328 -0.359 QT
0.359 -0.422 0.406 -0.438 QT
0.422 -0.438 0.438 -0.438 QT
0.5 -0.438 0.516 -0.406 QT
0.531 -0.391 0.531 -0.375 QT
0.531 -0.328 0.484 -0.328 QT
0.484 -0.313 0.469 -0.313 QT
0.438 -0.313 0.438 -0.344 QT
0.438 -0.344 0.438 -0.359 QT
0.438 -0.391 0.469 -0.406 QT
0.469 -0.406 0.484 -0.406 QT
0.469 -0.422 0.438 -0.422 QT
0.359 -0.422 0.344 -0.313 QT
0.328 -0.313 0.328 -0.297 QT
cp
f
GR
GS
[10 0 0 10 155.7709 403.21429] CT
N
0.281 -0.25 M
0.281 -0.25 L
0.281 -0.078 0.219 0.063 QT
0.172 0.172 0.094 0.234 QT
0.078 0.25 0.063 0.25 QT
0.063 0.25 0.063 0.234 QT
0.063 0.234 0.063 0.219 QT
0.234 0.063 0.234 -0.25 QT
0.234 -0.563 0.078 -0.719 QT
0.078 -0.719 L
0.063 -0.734 0.063 -0.734 QT
0.063 -0.75 0.063 -0.75 QT
0.078 -0.75 0.125 -0.703 QT
0.188 -0.641 0.219 -0.563 QT
0.281 -0.422 0.281 -0.25 QT
cp
f
GR
GS
[10 0 0 10 136.43751 421.21428] CT
N
/f-1374757194{0.359 -0.406 M
0.359 -0.406 L
0.313 -0.078 L
0.297 -0.016 0.266 0.063 QT
0.266 0.094 0.25 0.109 QT
0.219 0.188 0.156 0.203 QT
0.156 0.203 0.141 0.203 QT
0.094 0.203 0.063 0.172 QT
0.047 0.156 0.047 0.141 QT
0.047 0.094 0.094 0.078 QT
0.094 0.078 0.109 0.078 QT
0.141 0.078 0.141 0.094 QT
0.141 0.109 0.141 0.109 QT
0.141 0.141 0.109 0.156 QT
0.109 0.156 0.094 0.172 QT
0.109 0.188 0.141 0.188 QT
0.188 0.188 0.203 0.078 QT
0.219 0.063 0.219 0.031 QT
0.219 0 L
0.297 -0.406 L
0.234 -0.406 L
0.203 -0.406 0.203 -0.406 QT
0.203 -0.406 L
0.203 -0.406 L
0.203 -0.422 0.219 -0.438 QT
0.219 -0.438 L
0.234 -0.438 L
0.313 -0.438 L
0.328 -0.563 0.344 -0.594 QT
0.375 -0.688 0.438 -0.703 QT
0.453 -0.703 0.469 -0.703 QT
0.516 -0.703 0.547 -0.672 QT
0.547 -0.672 L
0.547 -0.656 0.547 -0.641 QT
0.547 -0.594 0.516 -0.578 QT
0.516 -0.578 0.5 -0.578 QT
0.469 -0.578 0.469 -0.594 QT
0.453 -0.609 0.453 -0.609 QT
0.453 -0.641 0.484 -0.656 QT
0.5 -0.656 0.516 -0.672 QT
0.5 -0.688 0.469 -0.688 QT
0.438 -0.688 0.422 -0.656 QT
0.406 -0.641 0.391 -0.547 QT
0.375 -0.438 L
0.453 -0.438 L
0.484 -0.438 0.484 -0.422 QT
0.484 -0.406 0.469 -0.406 QT
0.469 -0.406 L
0.453 -0.406 L
0.359 -0.406 L
cp}def
f-1374757194
f
GR
GS
[10 0 0 10 142.96532 421.21428] CT
N
/f578135677{0.328 0.234 M
0.328 0.234 L
0.328 0.25 0.328 0.25 QT
0.313 0.25 0.266 0.203 QT
0.203 0.141 0.172 0.063 QT
0.094 -0.078 0.094 -0.25 QT
0.094 -0.422 0.156 -0.563 QT
0.219 -0.672 0.297 -0.734 QT
0.313 -0.75 0.328 -0.75 QT
0.328 -0.75 0.328 -0.734 QT
0.328 -0.734 0.313 -0.719 QT
0.156 -0.563 0.156 -0.25 QT
0.156 0.063 0.313 0.219 QT
0.328 0.234 0.328 0.234 QT
cp}def
f578135677
f
GR
GS
[10 0 0 10 148.15052 421.21428] CT
N
/f-1950753827{0.328 -0.297 M
0.297 -0.172 L
0.281 -0.094 0.281 -0.078 QT
0.281 -0.031 0.313 -0.016 QT
0.328 -0.016 0.344 -0.016 QT
0.391 -0.016 0.422 -0.063 QT
0.453 -0.094 0.469 -0.141 QT
0.469 -0.156 0.484 -0.156 QT
0.5 -0.156 0.5 -0.141 QT
0.5 -0.125 0.469 -0.078 QT
0.406 0.016 0.344 0.016 QT
0.266 0.016 0.234 -0.047 QT
0.234 -0.063 0.234 -0.063 QT
0.203 -0.016 0.156 0 QT
0.141 0.016 0.125 0.016 QT
0.063 0.016 0.031 -0.031 QT
0.031 -0.031 0.031 -0.063 QT
0.031 -0.094 0.063 -0.109 QT
0.078 -0.109 0.078 -0.109 QT
0.109 -0.109 0.125 -0.094 QT
0.125 -0.078 0.125 -0.078 QT
0.125 -0.047 0.094 -0.031 QT
0.078 -0.031 0.078 -0.031 QT
0.094 -0.016 0.125 -0.016 QT
0.172 -0.016 0.203 -0.078 QT
0.219 -0.094 0.219 -0.109 QT
0.266 -0.313 0.266 -0.359 QT
0.266 -0.422 0.219 -0.422 QT
0.172 -0.422 0.125 -0.359 QT
0.125 -0.359 L
0.125 -0.359 0.125 -0.359 QT
0.109 -0.344 0.094 -0.313 QT
0.094 -0.313 0.094 -0.297 QT
0.078 -0.281 L
0.078 -0.281 0.078 -0.281 QT
0.063 -0.281 0.063 -0.281 QT
0.063 -0.313 0.094 -0.359 QT
0.141 -0.438 0.219 -0.438 QT
0.297 -0.438 0.328 -0.359 QT
0.359 -0.422 0.406 -0.438 QT
0.422 -0.438 0.438 -0.438 QT
0.5 -0.438 0.516 -0.406 QT
0.531 -0.391 0.531 -0.375 QT
0.531 -0.328 0.484 -0.328 QT
0.484 -0.313 0.469 -0.313 QT
0.438 -0.313 0.438 -0.344 QT
0.438 -0.344 0.438 -0.359 QT
0.438 -0.391 0.469 -0.406 QT
0.469 -0.406 0.484 -0.406 QT
0.469 -0.422 0.438 -0.422 QT
0.359 -0.422 0.344 -0.313 QT
0.328 -0.313 0.328 -0.297 QT
cp}def
f-1950753827
f
GR
GS
[10 0 0 10 155.7709 421.21428] CT
N
/f1485226786{0.281 -0.25 M
0.281 -0.25 L
0.281 -0.078 0.219 0.063 QT
0.172 0.172 0.094 0.234 QT
0.078 0.25 0.063 0.25 QT
0.063 0.25 0.063 0.234 QT
0.063 0.234 0.063 0.219 QT
0.234 0.063 0.234 -0.25 QT
0.234 -0.563 0.078 -0.719 QT
0.078 -0.719 L
0.063 -0.734 0.063 -0.734 QT
0.063 -0.75 0.063 -0.75 QT
0.078 -0.75 0.125 -0.703 QT
0.188 -0.641 0.219 -0.563 QT
0.281 -0.422 0.281 -0.25 QT
cp}def
f1485226786
f
GR
GS
[10 0 0 10 160.9561 421.21428] CT
N
/f-436441997{0.438 -0.719 M
0.094 0.219 L
0.094 0.25 0.078 0.25 QT
0.078 0.25 L
0.078 0.25 L
0.063 0.25 0.063 0.234 QT
0.063 0.234 0.063 0.234 QT
0.063 0.219 0.063 0.219 QT
0.406 -0.734 L
0.406 -0.75 0.422 -0.75 QT
0.438 -0.75 0.438 -0.734 QT
0.438 -0.734 0.438 -0.734 QT
0.438 -0.719 0.438 -0.719 QT
cp}def
f-436441997
f
GR
GS
[10 0 0 10 167.62279 421.21428] CT
N
/f-1187713661{0.516 -0.688 M
0.375 -0.109 L
0.359 -0.078 0.359 -0.063 QT
0.359 -0.016 0.391 -0.016 QT
0.438 -0.016 0.453 -0.094 QT
0.469 -0.109 0.469 -0.141 QT
0.484 -0.156 0.484 -0.156 QT
0.5 -0.156 0.5 -0.141 QT
0.5 -0.125 0.484 -0.078 QT
0.469 -0.063 0.469 -0.047 QT
0.438 0.016 0.391 0.016 QT
0.344 0.016 0.313 -0.031 QT
0.313 -0.047 0.297 -0.063 QT
0.234 0.016 0.172 0.016 QT
0.094 0.016 0.063 -0.063 QT
0.047 -0.094 0.047 -0.156 QT
0.047 -0.25 0.109 -0.344 QT
0.188 -0.438 0.266 -0.438 QT
0.281 -0.438 0.281 -0.438 QT
0.344 -0.438 0.375 -0.375 QT
0.438 -0.609 L
0.438 -0.641 L
0.438 -0.641 0.422 -0.656 QT
0.406 -0.656 0.391 -0.656 QT
0.359 -0.656 0.359 -0.656 QT
0.359 -0.688 0.375 -0.688 QT
0.469 -0.688 0.5 -0.688 QT
0.516 -0.688 0.516 -0.688 QT
cp
0.313 -0.125 M
0.313 -0.125 L
0.359 -0.313 L
0.359 -0.328 0.359 -0.328 QT
0.359 -0.359 0.344 -0.391 QT
0.328 -0.422 0.281 -0.422 QT
0.234 -0.422 0.188 -0.359 QT
0.172 -0.344 0.172 -0.328 QT
0.141 -0.266 0.109 -0.156 QT
0.109 -0.125 0.109 -0.109 QT
0.109 -0.031 0.156 -0.016 QT
0.156 -0.016 0.172 -0.016 QT
0.234 -0.016 0.281 -0.078 QT
0.297 -0.094 0.313 -0.109 QT
0.313 -0.109 L
0.313 -0.125 0.313 -0.125 QT
cp}def
f-1187713661
f
GR
GS
[10 0 0 10 174.56263 421.21428] CT
N
f-1950753827
f
GR
GS
[10 0 0 10 136.43751 440.73432] CT
N
f-1374757194
f
GR
GS
[10 0 0 10 142.96532 440.73432] CT
N
f578135677
f
GR
GS
[10 0 0 10 148.15052 440.73432] CT
N
f-1950753827
f
GR
GS
[10 0 0 10 155.7709 440.73432] CT
N
f1485226786
f
GR
GS
[10 0 0 10 160.9561 440.73432] CT
N
f-436441997
f
GR
GS
[10 0 0 10 167.62279 440.73432] CT
N
f-1187713661
f
GR
GS
[10 0 0 10 174.56263 440.73432] CT
N
f-1950753827
f
GR
GS
[7 0 0 7 182.183 435.2291] CT
N
/f1626891889{0.453 -0.172 M
0.453 -0.172 L
0.422 0 L
0.047 0 L
0.047 -0.031 0.063 -0.031 QT
0.063 -0.031 L
0.25 -0.25 L
0.359 -0.375 0.359 -0.469 QT
0.359 -0.563 0.297 -0.609 QT
0.297 -0.609 L
0.297 -0.609 L
0.266 -0.641 0.219 -0.641 QT
0.156 -0.641 0.109 -0.578 QT
0.094 -0.563 0.094 -0.531 QT
0.094 -0.531 0.109 -0.531 QT
0.141 -0.531 0.156 -0.5 QT
0.156 -0.5 L
0.156 -0.484 0.156 -0.484 QT
0.156 -0.438 0.109 -0.438 QT
0.109 -0.422 0.109 -0.422 QT
0.063 -0.422 0.047 -0.453 QT
0.047 -0.469 0.047 -0.484 QT
0.047 -0.563 0.109 -0.609 QT
0.156 -0.672 0.234 -0.672 QT
0.344 -0.672 0.406 -0.594 QT
0.438 -0.547 0.453 -0.484 QT
0.453 -0.484 0.453 -0.469 QT
0.453 -0.406 0.391 -0.328 QT
0.359 -0.297 0.297 -0.25 QT
0.25 -0.188 L
0.234 -0.188 L
0.125 -0.078 L
0.313 -0.078 L
0.391 -0.078 0.406 -0.078 QT
0.406 -0.094 0.422 -0.172 QT
0.453 -0.172 L
cp}def
f1626891889
f
GR
%%Trailer
%%Pages: 1
%%EOF
