%!PS-Adobe-3.0 EPSF-3.0
%%Creator: (Apache XML Graphics Commons: EPS Generator for Java2D)
%%CreationDate: 2021-04-19T19:01:51
%%Pages: (atend)
%%BoundingBox: 0 0 610 460
%%LanguageLevel: 3
%%EndComments
%%BeginProlog
%%BeginResource: procset (Apache XML Graphics Std ProcSet) 1.2 0
%%Version: 1.2 0
%%Copyright: (Copyright 2001-2003,2010 The Apache Software Foundation. License terms: http://www.apache.org/licenses/LICENSE-2.0)
%%Title: (Basic set of procedures used by the XML Graphics project \(Batik and FOP\))
/bd{bind def}bind def
/ld{load def}bd
/GR/grestore ld
/GS/gsave ld
/RM/rmoveto ld
/C/curveto ld
/t/show ld
/L/lineto ld
/ML/setmiterlimit ld
/CT/concat ld
/f/fill ld
/N/newpath ld
/S/stroke ld
/CC/setcmykcolor ld
/A/ashow ld
/cp/closepath ld
/RC/setrgbcolor ld
/LJ/setlinejoin ld
/GC/setgray ld
/LW/setlinewidth ld
/M/moveto ld
/re {4 2 roll M
1 index 0 rlineto
0 exch rlineto
neg 0 rlineto
cp } bd
/_ctm matrix def
/_tm matrix def
/BT { _ctm currentmatrix pop matrix _tm copy pop 0 0 moveto } bd
/ET { _ctm setmatrix } bd
/iTm { _ctm setmatrix _tm concat } bd
/Tm { _tm astore pop iTm 0 0 moveto } bd
/ux 0.0 def
/uy 0.0 def
/F {
  /Tp exch def
  /Tf exch def
  Tf findfont Tp scalefont setfont
  /cf Tf def  /cs Tp def
} bd
/ULS {currentpoint /uy exch def /ux exch def} bd
/ULE {
  /Tcx currentpoint pop def
  gsave
  newpath
  cf findfont cs scalefont dup
  /FontMatrix get 0 get /Ts exch def /FontInfo get dup
  /UnderlinePosition get Ts mul /To exch def
  /UnderlineThickness get Ts mul /Tt exch def
  ux uy To add moveto  Tcx uy To add lineto
  Tt setlinewidth stroke
  grestore
} bd
/OLE {
  /Tcx currentpoint pop def
  gsave
  newpath
  cf findfont cs scalefont dup
  /FontMatrix get 0 get /Ts exch def /FontInfo get dup
  /UnderlinePosition get Ts mul /To exch def
  /UnderlineThickness get Ts mul /Tt exch def
  ux uy To add cs add moveto Tcx uy To add cs add lineto
  Tt setlinewidth stroke
  grestore
} bd
/SOE {
  /Tcx currentpoint pop def
  gsave
  newpath
  cf findfont cs scalefont dup
  /FontMatrix get 0 get /Ts exch def /FontInfo get dup
  /UnderlinePosition get Ts mul /To exch def
  /UnderlineThickness get Ts mul /Tt exch def
  ux uy To add cs 10 mul 26 idiv add moveto Tcx uy To add cs 10 mul 26 idiv add lineto
  Tt setlinewidth stroke
  grestore
} bd
/QT {
/Y22 exch store
/X22 exch store
/Y21 exch store
/X21 exch store
currentpoint
/Y21 load 2 mul add 3 div exch
/X21 load 2 mul add 3 div exch
/X21 load 2 mul /X22 load add 3 div
/Y21 load 2 mul /Y22 load add 3 div
/X22 load /Y22 load curveto
} bd
/SSPD {
dup length /d exch dict def
{
/v exch def
/k exch def
currentpagedevice k known {
/cpdv currentpagedevice k get def
v cpdv ne {
/upd false def
/nullv v type /nulltype eq def
/nullcpdv cpdv type /nulltype eq def
nullv nullcpdv or
{
/upd true def
} {
/sametype v type cpdv type eq def
sametype {
v type /arraytype eq {
/vlen v length def
/cpdvlen cpdv length def
vlen cpdvlen eq {
0 1 vlen 1 sub {
/i exch def
/obj v i get def
/cpdobj cpdv i get def
obj cpdobj ne {
/upd true def
exit
} if
} for
} {
/upd true def
} ifelse
} {
v type /dicttype eq {
v {
/dv exch def
/dk exch def
/cpddv cpdv dk get def
dv cpddv ne {
/upd true def
exit
} if
} forall
} {
/upd true def
} ifelse
} ifelse
} if
} ifelse
upd true eq {
d k v put
} if
} if
} if
} forall
d length 0 gt {
d setpagedevice
} if
} bd
/RE { % /NewFontName [NewEncodingArray] /FontName RE -
  findfont dup length dict begin
  {
    1 index /FID ne
    {def} {pop pop} ifelse
  } forall
  /Encoding exch def
  /FontName 1 index def
  currentdict definefont pop
  end
} bind def
%%EndResource
%%BeginResource: procset (Apache XML Graphics EPS ProcSet) 1.0 0
%%Version: 1.0 0
%%Copyright: (Copyright 2002-2003 The Apache Software Foundation. License terms: http://www.apache.org/licenses/LICENSE-2.0)
%%Title: (EPS procedures used by the Apache XML Graphics project \(Batik and FOP\))
/BeginEPSF { %def
/b4_Inc_state save def         % Save state for cleanup
/dict_count countdictstack def % Count objects on dict stack
/op_count count 1 sub def      % Count objects on operand stack
userdict begin                 % Push userdict on dict stack
/showpage { } def              % Redefine showpage, { } = null proc
0 setgray 0 setlinecap         % Prepare graphics state
1 setlinewidth 0 setlinejoin
10 setmiterlimit [ ] 0 setdash newpath
/languagelevel where           % If level not equal to 1 then
{pop languagelevel             % set strokeadjust and
1 ne                           % overprint to their defaults.
{false setstrokeadjust false setoverprint
} if
} if
} bd
/EndEPSF { %def
count op_count sub {pop} repeat            % Clean up stacks
countdictstack dict_count sub {end} repeat
b4_Inc_state restore
} bd
%%EndResource
%%EndProlog
%%Page: 1 1
%%PageBoundingBox: 0 0 610 460
%%BeginPageSetup
%%PageOrientation: Portrait
/ReEncode { /MyEncoding exch def exch findfont dup length dict begin {def} forall /Encoding MyEncoding def currentdict end definefont } def
/Helvetica /HelveticaLatin1 ISOLatin1Encoding ReEncode
/Times /TimesLatin1 ISOLatin1Encoding ReEncode
/DP {/Points exch def Points 0 get Points 1 get M 2 2 Points length 1 sub {/i exch def Points i get Points i 1 add get L}for} def
[1 0 0 -1 0 460] CT
%%EndPageSetup
GS
0.8 GC
N
0 0 610 460 re
f
GR
0 GC
/HelveticaLatin1 10 F
GS
[1 0 0 1 222.25 261.875] CT
-1.094 9.282 M 1 -1 scale
(16) t
GR
/HelveticaLatin1 10 F
GS
[1 0 0 1 527.25 261.875] CT
-1.094 9.282 M 1 -1 scale
(18) t
GR
/HelveticaLatin1 10 F
GS
[1 0 0 1 69.75 261.875] CT
-1.094 9.282 M 1 -1 scale
(15) t
GR
/HelveticaLatin1 10 F
GS
[1 0 0 1 374.75 261.875] CT
-1.094 9.282 M 1 -1 scale
(17) t
GR
/HelveticaLatin1 10 F
GS
[1 0 0 1 141.5 261.875] CT
-1.094 9.282 M 1 -1 scale
(15.5) t
GR
/HelveticaLatin1 10 F
GS
[1 0 0 1 294 261.875] CT
-1.094 9.282 M 1 -1 scale
(16.5) t
GR
/HelveticaLatin1 10 F
GS
[1 0 0 1 446.5 261.875] CT
-1.094 9.282 M 1 -1 scale
(17.5) t
GR
GS
10.0 ML
N
[76.25 252.875 76.25 258.875] DP
S
GR
GS
10.0 ML
N
[152.5 252.875 152.5 258.875] DP
S
GR
GS
10.0 ML
N
[228.75 252.875 228.75 258.875] DP
S
GR
GS
10.0 ML
N
[305 252.875 305 258.875] DP
S
GR
GS
10.0 ML
N
[381.25 252.875 381.25 258.875] DP
S
GR
GS
10.0 ML
N
[457.5 252.875 457.5 258.875] DP
S
GR
GS
10.0 ML
N
[533.75 252.875 533.75 258.875] DP
S
GR
GS
10.0 ML
N
[76.25 252.875 76.25 255.875] DP
S
GR
GS
10.0 ML
N
[91.5 252.875 91.5 255.875] DP
S
GR
GS
10.0 ML
N
[106.75 252.875 106.75 255.875] DP
S
GR
GS
10.0 ML
N
[122 252.875 122 255.875] DP
S
GR
GS
10.0 ML
N
[137.25 252.875 137.25 255.875] DP
S
GR
GS
10.0 ML
N
[152.5 252.875 152.5 255.875] DP
S
GR
GS
10.0 ML
N
[167.75 252.875 167.75 255.875] DP
S
GR
GS
10.0 ML
N
[183 252.875 183 255.875] DP
S
GR
GS
10.0 ML
N
[198.25 252.875 198.25 255.875] DP
S
GR
GS
10.0 ML
N
[213.5 252.875 213.5 255.875] DP
S
GR
GS
10.0 ML
N
[228.75 252.875 228.75 255.875] DP
S
GR
GS
10.0 ML
N
[244 252.875 244 255.875] DP
S
GR
GS
10.0 ML
N
[259.25 252.875 259.25 255.875] DP
S
GR
GS
10.0 ML
N
[274.5 252.875 274.5 255.875] DP
S
GR
GS
10.0 ML
N
[289.75 252.875 289.75 255.875] DP
S
GR
GS
10.0 ML
N
[305 252.875 305 255.875] DP
S
GR
GS
10.0 ML
N
[320.25 252.875 320.25 255.875] DP
S
GR
GS
10.0 ML
N
[335.5 252.875 335.5 255.875] DP
S
GR
GS
10.0 ML
N
[350.75 252.875 350.75 255.875] DP
S
GR
GS
10.0 ML
N
[366 252.875 366 255.875] DP
S
GR
GS
10.0 ML
N
[381.25 252.875 381.25 255.875] DP
S
GR
GS
10.0 ML
N
[396.5 252.875 396.5 255.875] DP
S
GR
GS
10.0 ML
N
[411.75 252.875 411.75 255.875] DP
S
GR
GS
10.0 ML
N
[427 252.875 427 255.875] DP
S
GR
GS
10.0 ML
N
[442.25 252.875 442.25 255.875] DP
S
GR
GS
10.0 ML
N
[457.5 252.875 457.5 255.875] DP
S
GR
GS
10.0 ML
N
[472.75 252.875 472.75 255.875] DP
S
GR
GS
10.0 ML
N
[488 252.875 488 255.875] DP
S
GR
GS
10.0 ML
N
[503.25 252.875 503.25 255.875] DP
S
GR
GS
10.0 ML
N
[518.5 252.875 518.5 255.875] DP
S
GR
GS
10.0 ML
N
[533.75 252.875 533.75 255.875] DP
S
GR
GS
10.0 ML
N
[533.75 252.875 76.25 252.875] DP
S
GR
/HelveticaLatin1 10 F
GS
[1 0 0 1 60.25 246.375] CT
-1.094 9.282 M 1 -1 scale
(1) t
GR
/HelveticaLatin1 10 F
GS
[1 0 0 1 51.25 215.875] CT
-1.094 9.282 M 1 -1 scale
(1.2) t
GR
GS
10.0 ML
N
[76.25 252.875 70.25 252.875] DP
S
GR
GS
10.0 ML
N
[76.25 222.375 70.25 222.375] DP
S
GR
GS
10.0 ML
N
[76.25 252.875 73.25 252.875] DP
S
GR
GS
10.0 ML
N
[76.25 237.625 73.25 237.625] DP
S
GR
GS
10.0 ML
N
[76.25 222.375 73.25 222.375] DP
S
GR
GS
10.0 ML
N
[76.25 207.125 73.25 207.125] DP
S
GR
GS
10.0 ML
N
[76.25 207.125 76.25 252.875] DP
S
GR
GS
[1 0 0 1 76.25 226.02108] CT
N
-0.005 -0.005 M
-0.005 5.5 L
5.5 5.5 L
-0.005 -0.005 L
cp
clip
N
-4 0 M
0 -4 L
4 0 L
0 4 L
cp
eofill
GR
GS
[1 0 0 1 76.25 226.02108] CT
N
-0.005 -5.5 M
-0.005 -0.005 L
5.5 5.5 L
5.5 5.5 L
-0.005 -5.5 L
cp
clip
N
/f-2050161182{-4 0 M
0 -4 L
4 0 L
0 4 L
cp}def
f-2050161182
eofill
GR
GS
[1 0 0 1 76.25 226.02108] CT
N
-0.005 -5.5 M
5.5 5.5 L
5.5 -5.5 L
cp
clip
N
f-2050161182
eofill
GR
GS
[1 0 0 1 213.5 222.16194] CT
N
f-2050161182
eofill
GR
GS
[1 0 0 1 350.75 218.51533] CT
N
f-2050161182
eofill
GR
GS
[1 0 0 1 488 215.05907] CT
N
f-2050161182
eofill
GR
GS
N
76.245 207.125 M
533.755 207.125 L
533.755 252.875 L
76.245 252.875 L
76.245 207.125 L
cp
clip
0 0 1 RC
10.0 ML
N
[76.25 226.021 213.5 222.162 350.75 218.515 488 215.059] DP
S
GR
%%Trailer
%%Pages: 1
%%EOF
